{
  "type": "service_account",
  "project_id": "phat-fastlane",
  "private_key_id": "092d3e1941ba3e202ac8653051102f924637de1d",
  "private_key": "-----BEGIN PRIVATE KEY-----\nMIIEuwIBADANBgkqhkiG9w0BAQEFAASCBKUwggShAgEAAoIBAQCZb9W1/aqULHFD\ncge0WgGVYGrFygTbjmQGRQLh6/xebfuaK7AxLIph+0txMPSfxAkmz6dcMR2zbQqR\nIVeKCVQCzlWsLze6i6J0NB3f3ASB6VUc4o3/jxfWNFyVb6cmrs1VTQzTZ3Ou5EP1\ngsE0JyljndRMG87a9wD8IXdyzHIL+hARnr9gNIOdMIp1KcC+yMmkvmQhNU9yBW5W\ncIdwZOq2/cUL7NOS1qzMhob1UHR9QaALkB1Y++tcJatG1iZvq6x0V9QtNUprJ9o8\neQu/AACq3xNMybldFNDyGNCrGMmj6eMLKH20dBvQl+2kz42CeIKBN9fzsEpvLlTe\n+jCXiRsPAgMBAAECggEABVqfKPIN3+IVyQYzbvTNuwIkclFkeQAkzQk0cAtgK4Vd\nSFm/lKpatno30t55SBKQRS/tcEHwfjXPBBXB7GRQmlEhMS3BR+ZJHWfs0PES9oYx\n/PI02pbffI8oLzi4VZkM5i3sRXuF0F5RDBdAxEqc3vJ/bsZw9zgI60NZsSz2ynnP\nRLJn6lZI/MqTFmaUHJi0BXKdf1jApsSmuNRjAIsAX/iIgMeHKwO2pn3xllfK31zC\nk0gNw0JayMY3wF9PbyV1qinpal+1CpOZFi7qsQkKMPvHk+j0lDfA4rs2RiOmvX32\nOb/wX8C/pX8fkUCMDreLnEI2stVUxMf8+/Z3xeaWlQKBgQDYgRu23C5W624GuF/0\nIJXpikHn4Zs7rL4CgLAKXiXp0EUuvdctgbhqrzlCgxg4uJuxi00hkUPF0vKj94iM\nXsesjOqIgXAZY1xjEGSATIgXWKZqPxJyMfxX5+scpdL7EuyyspKXNITt/wBNJULa\ncWyn18O0w5R5zTpv6vVweKVlKwKBgQC1bW9RftVi2UA5VYAQNphz1eeRKvUR+ihp\n3AI4HvOUj2BzrdAZa/ALM3TZizJoJ99sJ6SAYasLTsOCdUOpDYaHI37hekbaKqGn\nhQn620w+/nPHe0AmoP4d5kB42wWQWJoclSqy8jdza9KT3MS7D0y1WaNFa1MHpCAj\nksfmiFa3rQJ/Cv6DacXElKVf8Pdr5/m/oxxiPGQ4fc9H1tiyF9SwGC97U+RQCP+N\nXd2ICtidYkP9pAZu5EV8K4+KwsjPJlGp0hlVz5jDGIbzKhSrBdjdEFJwIPUS+rmP\nFuewCMRi8l0DqA9pYkRIe813NnOt8WnRGrTaO1OzNnw1e3ly/UMjIwKBgQCpT39b\nJmos3WG6H7hraQfM0gpQxy39oN6mK9NGXFwkf8kbK1HQ55IUYejiO6zG1q8CV9yE\nkqD05IQ/8v85fI3W/6Eg+uO0JaTGmLk/ifgVsZCK0NKFOijr7jysjHkcxBLOKca3\nSKPG6xCRPK27hAOqGgTse8P4lYoIqKo00Xdb4QKBgFN0Gdiv2MXJb3/KrHhz7OhT\n/bRINNFJyC/IvdvGbRgV6hHf2sqW1BXqeSJTCLsV9XHNBScJe1/tvLJ2ggM3zLD6\nKITkJpwKM6VODBh3zUrUTwowRrOGUVsrdC6mDEBNdoPD67FAuScD6MqGuLXvJjXw\nMMQ4OWMxkCmvWKaDQBQB\n-----END PRIVATE KEY-----\n",
  "client_email": "phatfastlane@phat-fastlane.iam.gserviceaccount.com",
  "client_id": "102053610666143405568",
  "auth_uri": "https://accounts.google.com/o/oauth2/auth",
  "token_uri": "https://oauth2.googleapis.com/token",
  "auth_provider_x509_cert_url": "https://www.googleapis.com/oauth2/v1/certs",
  "client_x509_cert_url": "https://www.googleapis.com/robot/v1/metadata/x509/phatfastlane%40phat-fastlane.iam.gserviceaccount.com",
  "universe_domain": "googleapis.com"
}
